{
  "_class": "shapePath",
  "booleanOperation": 0,
  "do_objectID": "367A0B69-FBB2-4AA7-A4CA-B45FBB80C987",
  "edited": true,
  "exportOptions": {
    "_class": "exportOptions",
    "exportFormats": [
    ],
    "includedLayerIds": [
    ],
    "layerOptions": 0,
    "shouldTrim": false
  },
  "frame": {
    "_class": "rect",
    "constrainProportions": false,
    "height": 2.020934206270523,
    "width": 4.475176695013541,
    "x": 5.769239523519133,
    "y": 9.479065793729433
  },
  "isFlippedHorizontal": false,
  "isFlippedVertical": false,
  "isLocked": false,
  "isVisible": true,
  "layerListExpandedType": 0,
  "name": "Path",
  "nameIsFixed": false,
  "path": {
    "_class": "path",
    "isClosed": true,
    "pointRadiusBehaviour": 1,
    "points": [
      {
        "_class": "curvePoint",
        "cornerRadius": 0,
        "curveFrom": "{0.11438353591186894, 0.76193623242124509}",
        "curveMode": 3,
        "curveTo": "{-0.015858939759243566, 0.26537244523437575}",
        "hasCurveFrom": true,
        "hasCurveTo": true,
        "point": "{0.015132170503235377, 0.38352946737147581}"
      },
      {
        "_class": "curvePoint",
        "cornerRadius": 0,
        "curveFrom": "{0.70255956549220711, 1}",
        "curveMode": 2,
        "curveTo": "{0.29713060123175322, 1}",
        "hasCurveFrom": true,
        "hasCurveTo": true,
        "point": "{0.49847427900813468, 1}"
      },
      {
        "_class": "curvePoint",
        "cornerRadius": 0,
        "curveFrom": "{1.0158833652043877, 0.24966612506621974}",
        "curveMode": 3,
        "curveTo": "{0.88740979979725332, 0.75539342412573918}",
        "hasCurveFrom": true,
        "hasCurveTo": true,
        "point": "{0.98562988139171537, 0.36875687036652921}"
      },
      {
        "_class": "curvePoint",
        "cornerRadius": 0,
        "curveFrom": "{0.88925163304454657, -0.035172281007722087}",
        "curveMode": 2,
        "curveTo": "{0.99681143558633978, 0.098814946563918274}",
        "hasCurveFrom": true,
        "hasCurveTo": true,
        "point": "{0.94303153431544318, 0.031821332778098094}"
      },
      {
        "_class": "curvePoint",
        "cornerRadius": 0,
        "curveFrom": "{0.73184555376699001, 0.35851934704552185}",
        "curveMode": 3,
        "curveTo": "{0.82112911465745986, 0.0070607885750495723}",
        "hasCurveFrom": true,
        "hasCurveTo": true,
        "point": "{0.79087563084478762, 0.12615153387535902}"
      },
      {
        "_class": "curvePoint",
        "cornerRadius": 0,
        "curveFrom": "{0.37757459475858285, 0.5051793388932625}",
        "curveMode": 2,
        "curveTo": "{0.62101397142160442, 0.5051793388932625}",
        "hasCurveFrom": true,
        "hasCurveTo": true,
        "point": "{0.49847427900813468, 0.5051793388932625}"
      },
      {
        "_class": "curvePoint",
        "cornerRadius": 0,
        "curveFrom": "{0.17736835288335168, 0.016852017636075845}",
        "curveMode": 3,
        "curveTo": "{0.26801667687793446, 0.36245873950581459}",
        "hasCurveFrom": true,
        "hasCurveTo": true,
        "point": "{0.20835946314583062, 0.13500903977317591}"
      },
      {
        "_class": "curvePoint",
        "cornerRadius": 0,
        "curveFrom": "{0.0022732043042269089, 0.11395406066455682}",
        "curveMode": 2,
        "curveTo": "{0.10898969128182426, -0.02329998151941276}",
        "hasCurveFrom": true,
        "hasCurveTo": true,
        "point": "{0.055631447793025583, 0.045327039572572038}"
      }
    ]
  },
  "resizingConstraint": 63,
  "resizingType": 0,
  "rotation": 0,
  "shouldBreakMaskChain": false
}